%YAML 1.1
%TAG !u! tag:unity3d.com,2011:
--- !u!1001 &100100000
Prefab:
  m_ObjectHideFlags: 1
  serializedVersion: 2
  m_Modification:
    m_TransformParent: {fileID: 0}
    m_Modifications: []
    m_RemovedComponents: []
  m_ParentPrefab: {fileID: 0}
  m_RootGameObject: {fileID: 1000011191179110}
  m_IsPrefabParent: 1
--- !u!1 &1000011191179110
GameObject:
  m_ObjectHideFlags: 0
  m_PrefabParentObject: {fileID: 0}
  m_PrefabInternal: {fileID: 100100000}
  serializedVersion: 4
  m_Component:
  - 4: {fileID: 4000010690547036}
  - 114: {fileID: 114000010058630698}
  m_Layer: 0
  m_Name: bulletControl2Triangle
  m_TagString: Untagged
  m_Icon: {fileID: 0}
  m_NavMeshLayer: 0
  m_StaticEditorFlags: 0
  m_IsActive: 1
--- !u!4 &4000010690547036
Transform:
  m_ObjectHideFlags: 1
  m_PrefabParentObject: {fileID: 0}
  m_PrefabInternal: {fileID: 100100000}
  m_GameObject: {fileID: 1000011191179110}
  m_LocalRotation: {x: -0, y: -0, z: -0, w: 1}
  m_LocalPosition: {x: 2.408078, y: -6.963804, z: 0}
  m_LocalScale: {x: 1, y: 1, z: 1}
  m_LocalEulerAnglesHint: {x: 0, y: 0, z: 0}
  m_Children: []
  m_Father: {fileID: 0}
  m_RootOrder: 0
--- !u!114 &114000010058630698
MonoBehaviour:
  m_ObjectHideFlags: 1
  m_PrefabParentObject: {fileID: 0}
  m_PrefabInternal: {fileID: 100100000}
  m_GameObject: {fileID: 1000011191179110}
  m_Enabled: 1
  m_EditorHideFlags: 0
  m_Script: {fileID: 11500000, guid: 1d54f4b6d868dd04f9f8bce8d9c93549, type: 3}
  m_Name: 
  m_EditorClassIdentifier: 
  bulletLeft: {fileID: 137632, guid: b53fd1dc5fa006c40b3391d3d5778a5b, type: 2}
  bulletCenter: {fileID: 137632, guid: 01fecbdfaf485504dab1d7d4264b622f, type: 2}
  bulletRight: {fileID: 137632, guid: 24f9096a5bb109547aa44856d16ed0b1, type: 2}
  timetoSpawn: 0.2
  isShootForward: 1
  startX: 0
  startY: 0
  speed: 0.5
  damage: 1
